﻿{
  "$schema": "https://json.schemastore.org/launchsettings.json",
  "profiles": {
    "backend_dotnetcore": {
      "commandName": "Project",
      "dotnetRunMessages": true,
      "launchBrowser": true,
      "launchUrl": "",
      "applicationUrl": "http://localhost:8372",
      "environmentVariables": {
        "ASPNETCORE_ENVIRONMENT": "Development"
      }
    }
  }
}
